mp02 – STA 9750 Submission Material
…
# 3) Top state (answer row)
top_state_2015

# A tibble: 52 × 4
   state total_income total_pop avg_individual_income
   <chr>        <dbl>     <dbl>                 <dbl>
 1 DC    202663489140   6098283                33233.
 2 MA    186566282228   6754601                27621.
 3 CT     94480626751   3474313                27194.
 4 AK     13197939163    499421                26426.
 5 VT      5715539271    216661                26380.
 6 NH     22249129392    847504                26253.
 7 MN    116902131752   4469143                26158.
 8 MD     93826139111   3665585                25596.
 9 WA    161492961867   6350174                25431.
10 CO    123095455889   4840469                25430.
# ℹ 42 more rows
…
# 4) Final table with both metrics (years >= 2014)
housing_metrics <- instant |>
  inner_join(rate_based, by = c("GEOID", "NAME", "year"))

housing_metrics

# A tibble: 3,437 × 5
   GEOID NAME                                year INSTANT_PER_1K RATE_VS_POP_5YR
   <dbl> <chr>                              <dbl>          <dbl>           <dbl>
 1 10180 Abilene, TX Metro Area              2014          1.70             41.1
 2 10420 Akron, OH Metro Area                2014          1.08            195. 
 3 10500 Albany, GA Metro Area               2014          1.78            -25.1
 4 10540 Albany, OR Metro Area               2014          3.29             NA  
 5 10580 Albany-Schenectady-Troy, NY Metro…  2014          2.53             96.3
 6 10740 Albuquerque, NM Metro Area          2014          2.81             49.1
 7 10780 Alexandria, LA Metro Area           2014          2.09            417. 
 8 10900 Allentown-Bethlehem-Easton, PA-NJ…  2014          2.17            128. 
 9 11020 Altoona, PA Metro Area              2014          0.794          -600. 
10 11100 Amarillo, TX Metro Area             2014          3.51             53.7
# ℹ 3,427 more rows
…
