Mini-Project #04: Just the Fact(-Check)s, Ma’am! – STA 9750 Submission Material
…
ces_revisions_all <- purrr::map_dfr(
  years_vec,
  get_ces_revisions_year
)

#  Filter to jan 1979 – jun 2025 
ces_revisions <- ces_revisions_all |>
  dplyr::filter(
    date >= as.Date("1979-01-01"),
    date <= as.Date("2025-06-01")
  ) |>
  dplyr::arrange(date)
ces_revisions

# A tibble: 558 × 4
   date       original final revision
   <date>        <dbl> <dbl>    <dbl>
 1 1979-01-01      325   243      -82
 2 1979-02-01      301   294       -7
 3 1979-03-01      324   445      121
 4 1979-04-01       72   -15      -87
 5 1979-05-01      171   291      120
 6 1979-06-01       97   225      128
 7 1979-07-01       44    87       43
 8 1979-08-01        2    49       47
 9 1979-09-01      135    41      -94
10 1979-10-01      306   179     -127
# ℹ 548 more rows
…
